<?xml version="1.0" encoding="UTF-8" standalone="no"?>
<svg
   xmlns:dc="http://purl.org/dc/elements/1.1/"
   xmlns:cc="http://creativecommons.org/ns#"
   xmlns:rdf="http://www.w3.org/1999/02/22-rdf-syntax-ns#"
   xmlns:svg="http://www.w3.org/2000/svg"
   xmlns="http://www.w3.org/2000/svg"
   xmlns:xlink="http://www.w3.org/1999/xlink"
   viewBox="0 0 1362.5601 816.32001"
   height="816.32001"
   width="1362.5601"
   id="svg2771"
   version="1.1">
  <metadata
     id="metadata2777">
    <rdf:RDF>
      <cc:Work
         rdf:about="">
        <dc:format>image/svg+xml</dc:format>
        <dc:type
           rdf:resource="http://purl.org/dc/dcmitype/StillImage" />
        <dc:title></dc:title>
      </cc:Work>
    </rdf:RDF>
  </metadata>
  <defs
     id="defs2775" />
  <g
     id="g3399">
    <g
       id="g3420">
      <g
         id="g3451">
        <image
           xlink:href="e5jfx0.png"
           y="0"
           x="0"
           id="image2779"
           style="image-rendering:optimizeQuality"
           preserveAspectRatio="none"
           height="816.32001"
           width="1362.5601" />
        <text
           xml:space="preserve"
           style="font-style:normal;font-weight:normal;font-size:38.66666794px;line-height:1.25;font-family:sans-serif;text-align:center;letter-spacing:0px;word-spacing:0px;text-anchor:middle;fill:#31ace3;fill-opacity:1;stroke:none"
           x="663.19025"
           y="287.81607"
           id="text3334"><tspan
             id="tspan3403"
             x="663.19025"
             y="287.81607">Did we get your attention?</tspan><tspan
             id="tspan3401"
             x="663.19025"
             y="336.14941" /></text>
        <text
           xml:space="preserve"
           style="font-style:normal;font-weight:normal;font-size:38.66666794px;line-height:1.25;font-family:sans-serif;letter-spacing:0px;word-spacing:0px;fill:#fafafa;fill-opacity:1;stroke:none"
           x="409.55209"
           y="397.2381"
           id="text3338"><tspan
             id="tspan3336"
             x="409.55209"
             y="397.2381">You are more than welcome!</tspan></text>
        <image
           xlink:href="dou-solo-white.png"
           y="71.953621"
           x="66.91066"
           id="image973"
           style="image-rendering:optimizeQuality"
           preserveAspectRatio="none"
           height="75.192589"
           width="304.99994" />
        <text
           id="text3407"
           y="352.64325"
           x="472.72488"
           style="font-style:normal;font-weight:normal;font-size:38.66666794px;line-height:1.25;font-family:sans-serif;letter-spacing:0px;word-spacing:0px;fill:#dedede;fill-opacity:1;stroke:none"
           xml:space="preserve"><tspan
             y="352.64325"
             x="472.72488"
             id="tspan3405">COME AND JOIN US,</tspan></text>
      </g>
    </g>
  </g>
</svg>
