<?xml version="1.0" encoding="UTF-8" standalone="no"?>
<svg
   xmlns:dc="http://purl.org/dc/elements/1.1/"
   xmlns:cc="http://creativecommons.org/ns#"
   xmlns:rdf="http://www.w3.org/1999/02/22-rdf-syntax-ns#"
   xmlns:svg="http://www.w3.org/2000/svg"
   xmlns="http://www.w3.org/2000/svg"
   xmlns:xlink="http://www.w3.org/1999/xlink"
   viewBox="0 0 4493.8583 3178.5827"
   height="841mm"
   width="1189mm"
   id="svg4917"
   version="1.1">
  <metadata
     id="metadata4923">
    <rdf:RDF>
      <cc:Work
         rdf:about="">
        <dc:format>image/svg+xml</dc:format>
        <dc:type
           rdf:resource="http://purl.org/dc/dcmitype/StillImage" />
        <dc:title></dc:title>
      </cc:Work>
    </rdf:RDF>
  </metadata>
  <defs
     id="defs4921" />
  <image
     xlink:href="k8s.png"
     width="260.97195"
     height="226.34669"
     preserveAspectRatio="none"
     id="image4925"
     x="1845.8363"
     y="2171.125" />
  <image
     xlink:href="terraform.png"
     width="305.49881"
     height="305.49881"
     preserveAspectRatio="none"
     id="image4970"
     x="2101.895"
     y="2141.7327" />
  <rect
     y="2107.3806"
     x="1840.8624"
     height="403.36127"
     width="546.87061"
     id="rect9468"
     style="opacity:1;fill:none;fill-opacity:0.89411765;stroke:#000000;stroke-width:0.74695605;stroke-linecap:round;stroke-linejoin:round;stroke-miterlimit:4;stroke-dasharray:none;stroke-opacity:1;paint-order:stroke markers fill" />
  <g
     transform="translate(1847.0642,2190.7062)"
     id="g9539">
    <g
       transform="rotate(159.2747,980.53161,142.23555)"
       id="g9511" />
  </g>
  <g
     transform="translate(-785.78644,1085.3691)"
     id="g23446">
    <g
       id="g9493"
       transform="matrix(-1.1208113,0.02085264,-0.02084712,-1.121108,2772.3598,981.7531)">
      <ellipse
         ry="134.84929"
         rx="124.9521"
         cy="231.34698"
         cx="298.15302"
         id="path9476"
         style="opacity:1;fill:#ffffff;fill-opacity:1;stroke:#000000;stroke-width:0;stroke-linecap:round;stroke-linejoin:round;stroke-miterlimit:4;stroke-dasharray:none;stroke-opacity:1;paint-order:stroke markers fill" />
      <ellipse
         ry="190.52103"
         rx="191.75818"
         style="opacity:1;fill:#ffffff;fill-opacity:1;stroke:#000000;stroke-width:0;stroke-linecap:round;stroke-linejoin:round;stroke-miterlimit:4;stroke-dasharray:none;stroke-opacity:1;paint-order:stroke markers fill"
         id="circle9478"
         cx="535.68573"
         cy="205.36684" />
      <ellipse
         ry="178.14954"
         rx="175.67523"
         cy="425.57947"
         cx="390.93921"
         id="circle9480"
         style="opacity:1;fill:#ffffff;fill-opacity:1;stroke:#000000;stroke-width:0;stroke-linecap:round;stroke-linejoin:round;stroke-miterlimit:4;stroke-dasharray:none;stroke-opacity:1;paint-order:stroke markers fill" />
      <circle
         style="opacity:1;fill:#ffffff;fill-opacity:1;stroke:#000000;stroke-width:0;stroke-linecap:round;stroke-linejoin:round;stroke-miterlimit:4;stroke-dasharray:none;stroke-opacity:1;paint-order:stroke markers fill"
         id="circle9482"
         cx="654.45203"
         cy="424.34232"
         r="105.15771" />
      <ellipse
         ry="152.16939"
         rx="153.40654"
         style="opacity:1;fill:#ffffff;fill-opacity:1;stroke:#000000;stroke-width:0;stroke-linecap:round;stroke-linejoin:round;stroke-miterlimit:4;stroke-dasharray:none;stroke-opacity:1;paint-order:stroke markers fill"
         id="circle9486"
         cx="816.51874"
         cy="275.88437" />
    </g>
    <image
       xlink:href="gke.png"
       y="242.70709"
       x="2134.969"
       id="image9711"
       preserveAspectRatio="none"
       height="421.33334"
       width="421.33334" />
    <g
       id="g9568"
       transform="rotate(159.2747,2267.5244,574.8234)"
       style="fill:#e49500;fill-opacity:1">
      <ellipse
         ry="235.0584"
         rx="236.29556"
         cy="-41.817867"
         cx="1039.3093"
         id="circle9484"
         style="opacity:1;fill:#e49500;fill-opacity:1;stroke:#000000;stroke-width:0;stroke-linecap:round;stroke-linejoin:round;stroke-miterlimit:4;stroke-dasharray:none;stroke-opacity:1;paint-order:stroke markers fill" />
      <ellipse
         transform="matrix(0.99927863,0.03797669,0.04154686,0.99913656,0,0)"
         ry="169.38113"
         rx="137.3239"
         style="opacity:1;fill:#e49500;fill-opacity:1;stroke:#000000;stroke-width:0;stroke-linecap:round;stroke-linejoin:round;stroke-miterlimit:4;stroke-dasharray:none;stroke-opacity:1;paint-order:stroke markers fill"
         id="circle9495"
         cx="771.79645"
         cy="143.5269" />
      <ellipse
         transform="matrix(0.99980483,-0.01975589,-0.01891006,0.99982119,0,0)"
         ry="203.96495"
         rx="206.85335"
         cy="288.64062"
         cx="1088.7758"
         id="circle9497"
         style="opacity:1;fill:#e49500;fill-opacity:1;stroke:#000000;stroke-width:0;stroke-linecap:round;stroke-linejoin:round;stroke-miterlimit:4;stroke-dasharray:none;stroke-opacity:1;paint-order:stroke markers fill" />
      <ellipse
         transform="matrix(0.9990258,0.04412991,0.04902369,0.99879762,0,0)"
         ry="169.23669"
         rx="181.22928"
         style="opacity:1;fill:#e49500;fill-opacity:1;stroke:#000000;stroke-width:0;stroke-linecap:round;stroke-linejoin:round;stroke-miterlimit:4;stroke-dasharray:none;stroke-opacity:1;paint-order:stroke markers fill"
         id="circle9499"
         cx="736.43713"
         cy="-90.397118" />
      <ellipse
         ry="137.32359"
         rx="132.375"
         style="opacity:1;fill:#e49500;fill-opacity:1;stroke:#000000;stroke-width:0;stroke-linecap:round;stroke-linejoin:round;stroke-miterlimit:4;stroke-dasharray:none;stroke-opacity:1;paint-order:stroke markers fill"
         id="ellipse9515"
         cx="1300.9518"
         cy="79.713837" />
    </g>
    <text
       xml:space="preserve"
       style="font-style:normal;font-variant:normal;font-weight:normal;font-stretch:normal;font-size:240px;line-height:1.25;font-family:Terminus;-inkscape-font-specification:Terminus;letter-spacing:0px;word-spacing:0px;fill:#000000;fill-opacity:1;stroke:none"
       x="3339.5608"
       y="695.54669"
       id="text9647"><tspan
         id="tspan9645"
         x="3339.5608"
         y="695.54669"
         style="font-style:normal;font-variant:normal;font-weight:bold;font-stretch:normal;font-size:266.66665649px;font-family:Terminus;-inkscape-font-specification:'Terminus Bold';fill:#ffffff;fill-opacity:1">AWS</tspan></text>
    <g
       id="g18795"
       transform="translate(420.63084,-50.640189)">
      <g
         style="fill:#ffffff"
         transform="translate(-623.52336,1086.2173)"
         id="g18784">
        <path
           style="fill:#ffffff;stroke:#000000;stroke-width:1px;stroke-linecap:butt;stroke-linejoin:miter;stroke-opacity:1"
           d="m 3574.823,-690.35105 65.569,-37.73306 1.2371,35.87734 -34.6402,21.03154 0.6186,42.68166 38.3516,24.12441 35.2588,-19.79439 29.073,17.93867 -63.7132,38.35163 -71.1361,-40.82593 z"
           id="path18778" />
        <path
           style="fill:#ffffff;stroke:#000000;stroke-width:1px;stroke-linecap:butt;stroke-linejoin:miter;stroke-opacity:1"
           d="m 3649.5911,-729.91823 66.8061,38.97022 v 76.70327 l -32.7844,-20.41298 -0.6186,-37.73305 -34.0217,-20.41297 z"
           id="path18780" />
      </g>
      <text
         id="text18788"
         y="458.42523"
         x="2999.1191"
         style="font-style:normal;font-weight:normal;font-size:38.66666794px;line-height:1.25;font-family:sans-serif;letter-spacing:0px;word-spacing:0px;fill:#000000;fill-opacity:1;stroke:none"
         xml:space="preserve"><tspan
           style="font-size:66.66666412px;fill:#ffffff"
           y="458.42523"
           x="2999.1191"
           id="tspan18786">K</tspan></text>
    </g>
    <image
       xlink:href="g.png"
       y="589.00928"
       x="1810.9485"
       id="image18918"
       preserveAspectRatio="none"
       height="223.58879"
       width="661.0451" />
  </g>
</svg>
